[
  {
    "resumable": true,
    "passive": true,
    "state": "TRANSFER",
    "xferBytes":      100000000,
    "xferBytesTotal": 414187520,
    "xferNum": 0,
    "localBotName": "P_3z",
    "pack": {
      "pid": 1503183801,
      "cname": "#Zombie-Warez",
      "n": 114,
      "name": "Shut-Ins.Britains.Fattest.People.REPACK.HDTV.XviD-AFG.tar",
      "gets": 0,
      "nname": "Abandoned-IRC",
      "naddr": "irc.abandoned-irc.net",
      "nport": 6667,
      "uname": "Zombie-W-Tv-DiBLeY",
      "sz": 414187520,
      "szf": "395 MB",
      "age": 1421581577,
      "agef": "524 day ago",
      "last": 1466862651,
      "lastf": "11 min ago"
    },
    "additionalChannels": []
  },

  {
    "resumable": true,
    "passive": true,
    "state": "DONE",
    "xferBytes": 41417520,
    "xferBytesTotal": 41417520,
    "xferNum": 0,
    "localBotName": "P_3z",
    "pack": {
      "pid": 1503183803,
      "cname": "#Zombie-Warez",
      "n": 114,
      "name": "something stupid",
      "gets": 0,
      "nname": "Abandoned-IRC",
      "naddr": "irc.abandoned-irc.net",
      "nport": 6667,
      "uname": "Zombie-W-Tv-DiBLeY",
      "sz": 41417520,
      "szf": "39 MB",
      "age": 1421581577,
      "agef": "524 day ago",
      "last": 1466862651,
      "lastf": "11 min ago"
    },
    "additionalChannels": []
  },

  {
    "resumable": true,
    "passive": false,
    "state": "NEW",
    "xferBytes": 0,
    "xferBytesTotal": 414187520,
    "xferNum": 0,
    "localBotName": "P_3z",
    "pack": {
      "pid": 1503183802,
      "cname": "#Zombie-Warez",
      "n": 114,
      "name": "Shut-Ins.XviD-AFG.tar",
      "gets": 0,
      "nname": "awesome-IRC",
      "naddr": "irc.lala.net",
      "nport": 6667,
      "uname": "Zombie-Bot",
      "sz": 414187520,
      "szf": "395 MB",
      "age": 1421581577,
      "agef": "524 day ago",
      "last": 1466862651,
      "lastf": "11 min ago"
    },
    "additionalChannels": [ "#Warez", "#Query"]
  },

  {
    "resumable": true,
    "passive": true,
    "state": "INCOMING",
    "xferBytes": 0,
    "xferBytesTotal": 0,
    "xferNum": 0,
    "localBotName": "P_3u",
    "pack": {
      "pid":178529377,
      "name":"..: Albums :.. | ..: Suzi Quatro - Wild One - Greatest Hits :..",
      "nid":22,
      "nname":"Abandoned-IRC",
      "naddr":"irc.abandoned-irc.net",
      "nport":6667,
      "cid":1458004565,
      "cname":"#Zombie-Warez",
      "uid":1571899493,
      "uname":"Zombie-R-Music-5",
      "n":18,
      "gets":1,
      "sz":167772160,
      "szf":"160 MB",
      "age":1467136146,
      "agef":"10 min ago",
      "last":1467136146,
      "lastf":"10 min ago"
    },
    "additionalChannels": ["#a", "#b"]
  },

  {
    "resumable": true,
    "passive": true,
    "state": "REQUEST",
    "xferBytes": 0,
    "xferBytesTotal": 167772160,
    "xferNum": 0,
    "localBotName": "P_3p",
    "pack": {
      "pid":178529379,
      "name":"lalala",
      "nid":22,
      "nname":"Abandoned-IRC",
      "naddr":"irc.abandoned-irc.net",
      "nport":6667,
      "cid":1458004565,
      "cname":"#Zombie-Warez",
      "uid":1571899493,
      "uname":"Zombie-R-Music-5",
      "n":18,
      "gets":1,
      "sz":167772160,
      "szf":"160 MB",
      "age":1467136146,
      "agef":"10 min ago",
      "last":1467136146,
      "lastf":"10 min ago"
    },
    "additionalChannels": ["#a", "#b"]
  },

  {
    "resumable": false,
    "passive": false,
    "state": "TRANSFER",
    "xferBytes": 167072160,
    "xferBytesTotal": 167772160,
    "xferNum": 0,
    "localBotName": "P_3u",
    "pack": {
      "pid":1020061066,
      "name":"Smartest.Guy.in.the.Room.S01E10.How.to.Miss.a.Hole.in.One.720p.HDTV.x264-DHD.tar",
      "nid":22,
      "nname":"Abandoned-IRC",
      "naddr":"irc.abandoned-irc.net",
      "nport":6667,
      "cid":1458004565,
      "cname":"#Zombie-Warez",
      "uid":1571899493,
      "uname":"Zombie-R-Music-5",
      "n":18,
      "gets":1,
      "sz":167772160,
      "szf":"160 MB",
      "age":1467136146,
      "agef":"10 min ago",
      "last":1467136146,
      "lastf":"10 min ago"
    },
    "additionalChannels": ["#a", "#b"]
  },

  {
    "resumable": false,
    "passive": false,
    "state": "ERROR",
    "xferBytes": 0,
    "xferBytesTotal": 1000,
    "xferNum": 0,
    "localBotName": "P_3u",
    "pack": {
      "pid":102006199,
      "name":"BLEEEGH.tar",
      "nid":22,
      "nname":"Abandoned-IRC",
      "naddr":"irc.abandoned-irc.net",
      "nport":6667,
      "cid":1458004565,
      "cname":"#Zombie-Warez",
      "uid":1571899493,
      "uname":"Zombie-R-Music-5",
      "n":18,
      "gets":1,
      "sz":1000,
      "szf":"1000 B",
      "age":1467136146,
      "agef":"10 min ago",
      "last":1467136146,
      "lastf":"10 min ago"
    },
    "additionalChannels": ["#a", "#b"]
  }

]
